GEBAUER VERLAGSBIBLIOGRAPHIE

TOTAL PRINT EXTRAS

Halle: Gebauer 1744
Halle: Bauer 11742, Halle: Gebauer 31751
Halle: Bauer 11738, Gebauer 51756
Halle: Bauer 11742, Halle: Gebauer 41759
Halle: Gebauer 1767
Halle: Gebauer 1778
Halle: Gebauer 11786, 21798
Halle: Gebauer 11795, 21800, 31809
Halle: Gebauer 11800, 21809
Halle: Gebauer 11789, 21795, 31805
Halle: Gebauer 11800, 21805
