GEBAUER VERLAGSBIBLIOGRAPHIE

TOTAL MISCELLANEOUS

[Verf.: Luther, Martin; Übers. böhm.]
[Übersetzer: Menius, Justus]
[Übersetzer: Lange, Johann Joachim]
[Geburtstagsrede auf Böhmer, Justus Henning, am 4. Febr. 1740]
[Vorrede: Steinmetz, Johann Adam]
[Halle, Univ., Theol. Diss., Präs. Baumgarten, Siegmund Jacob]
[Halle, Univ., Med. Diss., Präs. Juncker, Johann]
[Verfasser: Henricus Lettus]
[Hrsg.: Borck, Georg Balthasar von]
[Halle, Univ., Med. Diss., Präs. Büchner, Andreas Elias]
[Halle, Univ., Diss., 1750]
[Halle, Univ., Theol. Diss., Präs. Baumgarten, Siegmund Jacob]
[Vorrede datiert: Jena den 24. April 1751]
[Vorrede: Mosheim, Johann Lorenz von]
[Med. Diss., Präs.: Büchner, Andreas Elias]
[Halle, Univ., Theol. Diss., Präs. Baumgarten, Siegmund Jacob]
[Halle, Univ., Theol. Diss., Präs. Struensee, Adam]
[Halle, Univ., Theol. Diss., Präs. Baumgarten, Siegmund Jacob]
[Halle, Univ., Theol. Diss., Präs. Struensee, Adam]
[Halle, Univ., Theol. Diss., Präs. Baumgarten, Siegmund Jacob]
[Halle, Univ., Theol. Diss., Präs. Baumgarten, Siegmund Jacob]
[Vorrede: Baumgarten, Siegmund Jacob]
[Verfasser: Henricus Lettus]
[Vorrede: Baumgarten, Siegmund Jacob]
[Halle, Univ., Theol. Diss., Präs. Baumgarten, Siegmund Jacob]
[Hrsg.: Baumgarten, Siegmund Jacob]
[Halle, Univ., Theol. Diss., Präs. Struensee, Adam]
[Halle, Univ., Theol. Diss., Präs. Struensee, Adam]
[Halle, Univ., Theol. Diss., Präs. Semler, Johann Salomo]
[Hrsg.: Struensee, Adam]
[Hrsg.: Schreber, Daniel Gottfried]
[Hrsg.: Baumgarten, Siegmund Jacob]
[Hrsg.: Baumgarten, Siegmund Jacob]
[Halle, Univ., Jur. Diss., Präs. Steck, Johann Christoph Wilhelm von]
[Halle, Univ., Disp., 1756]
[Übersetzung: Groepler, Johann Balthasar]
[Hrsg.: Baumgarten, Siegmund Jacob; Semler, Johann Salomo]
[Hrsg.: Lange, Samuel Gotthold]
[Glückwunschschrift für Siegmund Jacob Baumgarten zum Geburtstag, 14. März 1757]
[Halle, Univ., Jur. Diss., 1757]
[Halle, Univ., Med. Diss., Präs. Büchner, Andreas Elias]
[Vorrede: Rambach, Friedrich Eberhard]
[Vorrede: Semler, Johann Salomo]
[Hrsg.: Semler, Johann Salomo]
[Vorrede: J. P. M.]
Michaelmesse, 1763.
[Verfasser: Brosses, Charles de]
[Hrsg.: Bertram, Joachim Christoph]
[Übersetzer: Jacobi, Johann Georg]
[= AWH Norwegen, Dänemark 1]
[Hrsg.: Bertram, Joachim Christoph]
[Übersetzer: Schütte, Christian Heinrich]
[Halle, Univ., Jur. Diss., Präs. Nettelbladt, Daniel]
[Halle, Univ., Jur. Diss., Präs. Nettelbladt, Daniel]
[= AWH Norwegen, Dänemark 2]
[Übersetzer: Schulz, Johann Christoph Friedrich]
[Übersetzer: Schirach, Gottlob Benedikt von]
[Hrsg.: Wohlfahrt, Johann August]
[Halle, Univ., Med. Diss., Präs. Nietzki, Adam]
[Hrsg.: Mangelsdorf, Karl Ehregott]
[= AWH Frankreich 1]
[Hrsg.: Goeze, Johann Melchior]
[Hrsg.: Goeze, Johann August Ephraim]
[Übersetzer: Schulz, Johann Christoph Friedrich]
[Hrsg.: Uhl, Johann Ludwig]
[Hrsg.: Murr, Christoph Gottlieb von]
[Hrsg.: Goeze, Johann August Ephraim]
[= AWH Frankreich 3]
[Hrsg.: Uhl, Johann Ludwig]
[Vorrede: Zachariae, Gotthilf Traugott]
[Übersetzer: Schulz, Johann Christoph Friedrich]
[Hrsg.: Rambach, Johann Jakob]
[Hrsg.: Meusel, Johann Georg]
[Hrsg.: Semler, Johann Salomo]
[Hrsg.: Schmid, Christian Heinrich]
[Hrsg.: Semler, Johann Salomo]
[Hrsg.: Uhl, Johann Ludwig]
[Hrsg.: Schmid, Christian Heinrich]
[= AWH Italien 1]
[= AWH Italien, Teil 2]
[Übersetzer: Schmid, Christian Heinrich]
[Übersetzer: Ewerbeck, Christian Gottfried; Zus.: Wolf, Friedrich August]
[= AWH Italien, Teil 3]
[Hrsg.: Uhl, Johann Ludwig]
[= AWH Italien, Teil 4]
[= AWH Italien, Teil 5]
[entspr. Fabri, Johann Ernst: Geographisches Lehrbuch für den zweyten Cursus, Bd. 1+2]
[Übersetzer: Albrecht, Heinrich Christoph]
[= AWH Italien, Teil 6]
[erm. Übersetzer: Schulz, Johann Christoph Friedrich]
[= AWH Italien, Teil 7]
[= AWH Italien, Teil 7]
[Originalverfasser: Maître de La Tour]
[= AWH Deutschland, Teil 1]
[entspr. Große, Gottfried: Uebersetzung der Römischen Oeconomen, namentlich des Cato, Varro, Columella, und Palladius]
[erm. Übersetzer: Schulz, Johann Christoph Friedrich]
[= AWH Italien, Teil 7]
[Übersetzer: Schmidt-Phiseldek, Christoph von]
[= AWH Deutschland, Teil 2]
[entspr. Große, Gottfried: Uebersetzung der Römischen Oeconomen, namentlich des Cato, Varro, Columella, und Palladius]
[= AWH Deutschland, Teil 3]
[erm. Übersetzer: Schulz, Johann Christoph Friedrich]
[= AWH Deutschland, Teil 4]
[erm. Übersetzer: Schulz, Johann Christoph Friedrich]
[Halle, Univ., Phil. Diss., 1790; Präses: Wolf, Friedrich August]
[Nebentitel entspr. Wagnitz, Heinrich Balthasar: Beispiele zur Erläuterung des Katechismus, Teil 4]
[= AWH Deutschland, Teil 5]
[= AWH Deutschland, Teil 6]
[= AWH Deutschland, Teil 7]
[= AWH Deutschland, Teil 8]
[= AWH Deutschland, Teil 9]
[Hrsg.: Hoche, Johann Gottfried]
[Geschichte der Ukraine und der ukrainischen Cosaken]
[= AWH Deutschland, Teil 10]
[= AWH Wenden u. Slawen, Teil 3]
[Vorwort: André, Christian Carl]
[= AWH Wenden u. Slawen, Teil 4]
[Hrsg.: Nösselt, Johann August]
[= Für Leidende. Erster Anhang zur Moral in Beyspielen]
[entspr. Fabri, Johann Ernst: Geographisches Lehrbuch für den zweyten Cursus und dessen Elementargeographie, Bd. 4]
[= AWH Ungarn, Teil 4]
[Verfasser: Leopold, Carl Gustaf af]
[Halle, Univ., Med. Diss.]
[Hrsg.: Klügel, Georg Simon]
[Hrsg.: Sprengel, Kurt]
