GEBAUER VERLAGSBIBLIOGRAPHIE

CREATOR WITH ROLE

Milde, Heinrich (Hg.)
Milde, Heinrich (Hg.)
Nehring, Johann (Hg.)
Walch, Johann Georg (Hg.)
Walch, Johann Georg (Hg.)
Walch, Johann Georg (Hg.)
Bötticher, Jacob Gottfried; Steinersdorf, Joannes Christianus; Kiernander, Johann Zacharias (Beitr.)
Walch, Johann Georg (Hg.)
Walch, Johann Georg (Hg.)
Walch, Johann Georg (Hg.)
Walch, Johann Georg (Hg.)
Walch, Johann Georg (Hg.)
Baumgarten, Siegmund Jacob (Hg.)
Walch, Johann Georg (Hg.)
Baumgarten, Siegmund Jacob (Hg.)
Walch, Johann Georg (Hg.)
Baumgarten, Siegmund Jacob (Hg.)
Walch, Johann Georg (Hg.)
Baumgarten, Siegmund Jacob (Hg.)
Baumgarten, Siegmund Jacob (Hg.)
Baumgarten, Siegmund Jacob (Hg.)
Walch, Johann Georg (Hg.)
Baumgarten, Siegmund Jacob (Hg.)
Baumgarten, Siegmund Jacob (Hg.)
Baumgarten, Siegmund Jacob (Hg.)
Meier, Georg Friedrich; Lange, Samuel Gotthold (Hg.)
Baumgarten, Siegmund Jacob (Hg.)
Baumgarten, Siegmund Jacob (Hg.)
Meier, Georg Friedrich; Lange, Samuel Gotthold (Hg.)
Walch, Johann Georg (Hg.)
Baumgarten, Siegmund Jacob (Hg.)
Baumgarten, Siegmund Jacob (Hg.)
Baumgarten, Siegmund Jacob (Hg.)
Meier, Georg Friedrich; Lange, Samuel Gotthold (Hg.)
Walch, Johann Georg (Hg.)
Baumgarten, Siegmund Jacob (Hg.)
Baumgarten, Siegmund Jacob (Hg.)
Meier, Georg Friedrich; Lange, Samuel Gotthold (Hg.)
Baumgarten, Siegmund Jacob (Hg.)
Baumgarten, Siegmund Jacob (Hg.)
Baumgarten, Siegmund Jacob (Hg.)
Lange, Samuel Gotthold (Hg.)
Meier, Georg Friedrich; Lange, Samuel Gotthold (Hg.)
Baumgarten, Siegmund Jacob (Hg.)
Baumgarten, Siegmund Jacob (Hg.)
Baumgarten, Siegmund Jacob (Hg.)
Meier, Georg Friedrich; Lange, Samuel Gotthold (Hg.)
Walch, Johann Georg (Hg.)
Baumgarten, Siegmund Jacob (Hg.)
Baumgarten, Siegmund Jacob (Hg.)
Baumgarten, Siegmund Jacob (Hg.)
Meier, Georg Friedrich; Lange, Samuel Gotthold (Hg.)
Baumgarten, Siegmund Jacob (Hg.)
Baumgarten, Siegmund Jacob (Hg.)
Baumgarten, Siegmund Jacob (Hg.)
Baumgarten, Siegmund Jacob (Hg.)
Meier, Georg Friedrich; Lange, Samuel Gotthold (Hg.)
Baumgarten, Siegmund Jacob (Hg.)
Baumgarten, Siegmund Jacob (Hg.)
Baumgarten, Siegmund Jacob (Hg.)
Meier, Georg Friedrich; Lange, Samuel Gotthold (Hg.)
Baumgarten, Siegmund Jacob (Hg.)
Baumgarten, Siegmund Jacob (Hg.)
Meier, Georg Friedrich; Lange, Samuel Gotthold (Hg.)
Baumgarten, Siegmund Jacob; Semler, Johann Salomo (Hg.)
Baumgarten, Siegmund Jacob (Hg.)
Meier, Georg Friedrich; Lange, Samuel Gotthold (Hg.)
Semler, Johann Salomo (Hg.)
Meier, Georg Friedrich; Lange, Samuel Gotthold (Hg.)
Rambach, Friedrich Eberhard (Hg.)
Semler, Johann Salomo (Hg.)
Semler, Johann Salomo (Hg.)
Meier, Georg Friedrich; Lange, Samuel Gotthold (Hg.)
Rambach, Friedrich Eberhard (Hg.)
Semler, Johann Salomo (Hg.)
Semler, Johann Salomo (Hg.)
Meier, Georg Friedrich; Lange, Samuel Gotthold (Hg.)
Semler, Johann Salomo (Hg.)
Semler, Johann Salomo (Hg.)
Semler, Johann Salomo (Hg.)
Semler, Johann Salomo (Hg.)
Meier, Georg Friedrich; Lange, Samuel Gotthold (Hg.)
Rambach, Friedrich Eberhard (Hg.)
Semler, Johann Salomo (Hg.)
Semler, Johann Salomo (Hg.)
[Meier, Georg Friedrich]; Lange, Samuel Gotthold (Hg.)
Semler, Johann Salomo (Hg.)
Semler, Johann Salomo (Hg.)
Meier, Georg Friedrich; Lange, Samuel Gotthold (Hg.)
[Meier, Georg Friedrich]; Lange, Samuel Gotthold (Hg.)
Semler, Johann Salomo (Hg.)
Semler, Johann Salomo (Hg.)
Semler, Johann Salomo (Hg.)
[Meier, Georg Friedrich]; Lange, Samuel Gotthold (Hg.)
Semler, Johann Salomo (Hg.)
Semler, Johann Salomo (Hg.)
Semler, Johann Salomo (Hg.)
[Meier, Georg Friedrich]; Lange, Samuel Gotthold (Hg.)
Semler, Johann Salomo (Hg.)
Semler, Johann Salomo (Hg.)
Adelung, Johann Christoph (Hg.)
Bertram, Joachim Christoph (Hg.)
Boysen, Friedrich Eberhard (Hg.)
Gatterer, Johann Christoph (Hg.)
Klotz, Christian Adolf (Hg.)
[Meier, Georg Friedrich]; Lange, Samuel Gotthold (Hg.)
Semler, Johann Salomo (Hg.)
Boysen, Friedrich Eberhard (Hg.)
Boysen, Friedrich Eberhard (Hg.)
Gatterer, Johann Christoph (Hg.)
Klotz, Christian Adolf (Hg.)
[Meier, Georg Friedrich]; Lange, Samuel Gotthold (Hg.)
Riedel, Friedrich Justus (Hg.)
Boysen, Friedrich Eberhard (Hg.)
Boysen, Friedrich Eberhard (Hg.)
Gatterer, Johann Christoph (Hg.)
Klotz, Christian Adolf (Hg.)
Klotz, Christian Adolf (Hg.)
Riedel, Friedrich Justus (Hg.)
Semler, Johann Salomo (Hg.)
Schreber, Daniel August (Hg.)
Boysen, Friedrich Eberhard (Hg.)
Gatterer, Johann Christoph (Hg.)
Klotz, Christian Adolph (Hg.)
Klotz, Christian Adolph (Hg.)
Semler, Johann Salomo (Hg.)
Gatterer, Johann Christoph (Hg.)
Klotz, Christian Adolph (Hg.)
Semler, Johann Salomo (Hg.)
Büttner (Familie)
Semler, Johann Salomo (Hg.)
Boysen, Friedrich Eberhard (Hg.)
Feddersen, Jacob Friedrich; Sturm, Christoph Christian; Meister, Christoph Georg Ludwig (Hg.)
Semler, Johann Salomo (Hg.)
Feddersen, Jacob Friedrich; Sturm, Christoph Christian; Meister, Christoph Georg Ludwig (Hg.)
[Schütz, Christian Gottfried (Hg.)]
Walch, Johann Ernst Immanuel (Hg.)
Walther, Johann Heinrich (Übers.)
Boysen, Friedrich Eberhard (Hg.)
Meusel, Johann Georg (Hg.)
[Schütz, Christian Gottfried (Hg.)]
Walch, Johann Ernst Immanuel (Hg.)
Meusel, Johann Georg (Hg.)
[Schütz, Christian Gottfried (Hg.)]
Walch, Johann Ernst Immanuel (Hg.)
Burn, Richard; Enfield, William (Hg.)
Meusel, Johann Georg (Hg.)
Rabe, Johann Jakob (Hg.)
Strobel, Georg Theodor (Hg.)
Walch, Johann Ernst Immanuel (Hg.)
Burn, Richard; Enfield, William (Hg.)
Lossius, Johann Christian (Hg.)
Masch, Andreas Gottlieb (Hg.)
Meusel, Johann Georg (Hg.)
Niemeyer, August Hermann (Hg.)
Walch, Johann Ernst Immanuel (Hg.)
Burn, Richard; Enfield, William (Hg.)
Lossius, Johann Christian (Hg.)
Meusel, Johann Georg (Hg.)
Schreber, Johann Christian Daniel (Hg.)
Schwabe, Johann Gottlob Samuel (Hg.)
[Bahrdt, Carl Friedrich (Hg.)]
[Bamberger, Johann Peter (Hg.)]
Lossius, Johann Christian (Hg.)
Schreber, Johann Christian Daniel (Hg.)
[Schütz, Christian Gottfried (Hg.)]
Schütz, Christian Gottfried (Hg.)
Schütz, Christian Gottfried; Semler, Johann Salomo (Hg.)
Schwabe, Johann Gottlob Samuel (Hg.)
Sell, Johann Jakob (Hg.)
Bahrdt, Carl Friedrich (Hg.)
[Bamberger, Johann Peter (Hg.)]
Burn, Richard; Enfield, William (Hg.)
Feddersen, Jakob Friedrich; Wolfrath, Friedrich Wilhelm (Hg.)
Lossius, Johann Christian (Hg.)
Masch, Andreas Gottlieb (Hg.)
Niemeyer, August Hermann (Hg.)
Schreber, Johann Christian Daniel (Hg.)
Schütz, Christian Gottfried; Semler, Johann Salomo (Hg.)
Schwabe, Johann Gottlob Samuel (Hg.)
Lossius, Johann Christian (Hg.)
Schreber, Johann Christian Daniel (Hg.)
Schütz, Christian Gottfried (Hg.)
Schütz, Christian Gottfried; Semler, Johann Salomo (Hg.)
Schulz, Johann Christoph Friedrich (Hg.)
Borheck, August Christian; Borheck, Konrad (Hg.)
Fabri, Johann Ernst (Hg.)
Masch, Andreas Gottlieb (Hg.)
Schlegel, Gottlieb (Hg.)
Schreber, Johann Christian Daniel (Hg.)
Schütz, Christian Gottfried (Hg.)
Schütz, Christian Gottfried; Semler, Johann Salomo (Hg.)
Borheck, August Christian; Borheck, Konrad (Hg.)
Feddersen, Jakob Friedrich; Wolfrath, Friedrich Wilhelm (Hg.)
Roch, Christian Wilhelm (Hg.)
Schreber, Johann Christian Daniel (Hg.)
Schütz, Christian Gottfried (Hg.)
Schütz, Christian Gottfried; Semler, Johann Salomo (Hg.)
Schulz, Johann Christoph Friedrich (Hg.)
Borheck, August Christian; Borheck, Konrad (Hg.)
Eberhard, Johann August (Hg.)
Feddersen, Jakob Friedrich; Wolfrath, Friedrich Wilhelm (Hg.)
Masch, Andreas Gottlieb (Hg.)
Schreber, Johann Christian Daniel (Hg.)
Schütz, Christian Gottfried; Semler, Johann Salomo (Hg.)
Schulz, Johann Christoph Friedrich (Hg.)
Fabri, Johann Ernst (Hg.)
Großing, Franz Rudolph von (Hg.)
Sprengel, Matthias Christian (Hg.)
Schreber, Johann Christian Daniel (Hg.)
Schütz, Christian Gottfried; Semler, Johann Salomo (Hg.)
Sprengel, Matthias Christian (Hg.)
Bardili, Christoph Gottfried (Hg.)
Eberhard, Johann August (Hg.)
Eberhard, Johann August (Hg.)
Große, Gottfried (Hg.)
Schreber, Johann Christian Daniel (Hg.)
Schütz, Christian Gottfried; Semler, Johann Salomo (Hg.)
[Waldau, Georg Ernst (Hg.)]
Wolf, Friedrich August (Hg.)
Eberhard, Johann August (Hg.)
Große, Gottfried (Hg.)
Schreber, Johann Christian Daniel (Hg.)
Schütz, Christian Gottfried; Semler, Johann Salomo (Hg.)
Eberhard, Johann August (Hg.)
Feddersen, Jakob Friedrich; Wolfrath, Friedrich Wilhelm (Hg.)
Große, Gottfried (Hg.)
Masch, Andreas Gottlieb (Hg.)
Schütz, Christian Gottfried; Semler, Johann Salomo (Hg.)
Senckenberg, Renatus Karl von (Hg.)
Eberhard, Johann August (Hg.)
Große, Gottfried (Hg.)
Schreber, Johann Christian Daniel (Hg.)
Senckenberg, Renatus Karl von (Hg.)
Große, Gottfried (Hg.)
Schreber, Johann Christian Daniel (Hg.)
Schütz, Christian Gottfried; Semler, Johann Salomo (Hg.)
Senckenberg, Renatus Karl von (Hg.)
[André, Christian Carl (Hg.)]
[André, Christian Carl (Hg.)]
[André, Christian Carl (Hg.)]
[André, Christian Carl (Hg.)]
[André, Christian Carl (Hg.)]
Große, Gottfried (Hg.)
Motz, Johann Friedrich Wilhelm (Hg.)
Motz, Johann Friedrich Wilhelm (Hg.)
Schreber, Johann Christian Daniel (Hg.)
Schütz, Christian Gottfried (Hg.)
Senckenberg, Renatus Karl von (Hg.)
[André, Christian Carl (Hg.)]
[André, Christian Carl (Hg.)]
[André, Christian Carl (Hg.)]
[André, Christian Carl (Hg.)]
[André, Christian Carl (Hg.)]
[André, Christian Carl (Hg.)]
Große, Gottfried (Hg.)
Höpfner, Johann Georg Christian (Hg.)
Schütz, Christian Gottfried (Hg.)
Schütz, Christian Gottfried; Semler, Johann Salomo (Hg.)
Senckenberg, Renatus Karl von (Hg.)
[André, Christian Carl (Hg.)]
[André, Christian Carl (Hg.)]
[André, Christian Carl (Hg.)]
[André, Christian Carl (Hg.)]
[André, Christian Carl (Hg.)]
[André, Christian Carl (Hg.)]
[André, Christian Carl (Hg.)]
[André, Christian Carl (Hg.)]
[André, Christian Carl (Hg.)]
[André, Christian Carl (Hg.)]
Große, Gottfried (Hg.)
Schütz, Christian Gottfried; Semler, Johann Salomo (Hg.)
Senckenberg, Renatus Karl von (Hg.)
[André, Christian Carl (Hg.)]
[André, Christian Carl (Hg.)]
[André, Christian Carl (Hg.)]
[André, Christian Carl (Hg.)]
[André, Christian Carl (Hg.)]
[André, Christian Carl (Hg.)]
[André, Christian Carl (Hg.)]
[André, Christian Carl (Hg.)]
[André, Christian Carl (Hg.)]
[André, Christian Carl (Hg.)]
[André, Christian Carl (Hg.)]
[André, Christian Carl (Hg.)]
[André, Christian Carl (Hg.)]
[André, Christian Carl (Hg.)]
[André, Christian Carl (Hg.)]
[André, Christian Carl (Hg.)]
[André, Christian Carl (Hg.)]
[André, Christian Carl (Hg.)]
[André, Christian Carl (Hg.)]
[André, Christian Carl (Hg.)]
[André, Christian Carl (Hg.)]
[André, Christian Carl (Hg.)]
André, Christian Carl (Hg.)
[André, Christian Carl (Hg.)]
[André, Christian Carl (Hg.)]
[André, Christian Carl (Hg.)]
[André, Christian Carl (Hg.)]
André, Christian Carl (Hg.)
André, Christian Carl (Hg.)
Kanne, Johann Arnold; Grotius, Hugo (Hg.)
Schreber, Johann Christian Daniel (Hg.)
Schütz, Christian Gottfried; Semler, Johann Salomo (Hg.)
Harmsen, Johann Jacob (Hg.)
Schmieder, Friedrich Gotthelf Benjamin (Hg.)
Schütz, Christian Gottfried (Hg)
Schmieder, Friedrich Gotthelf Benjamin (Hg.)
Schütz, Christian Gottfried (Hg.)
Schütz, Christian Gottfried (Hg.)
Wagnitz, Heinrich Balthasar (Hg.)
Matthaei, Christian Friedrich von (Hg.)
Schreber, Johann Christian Daniel (Hg.)
Wagnitz, Heinrich Balthasar (Hg.)
Schütz, Christian Gottfried (Hg.)
Wagnitz, Heinrich Balthasar (Hg.)
Rühs, Friedrich (Hg.)
Schreber, Johann Christian Daniel (Hg.)
Sprengel, Kurt (Hg.)
Wagnitz, Heinrich Balthasar (Hg.)
Baur, Samuel (Hg.)
Sprengel, Kurt (Hg.)
Tiebe , Hermann Friedrich (Hg.)
Wagnitz, Heinrich Balthasar (Hg.)
Baur, Samuel (Hg.)
Rühs, Friedrich (Hg.)
Wagnitz, Heinrich Balthasar (Hg.)
Bahrdt, Carl Friedrich (Übers.)
Schütz, Christian Gottfried (Hg.)
Wagnitz, Heinrich Balthasar (Hg.)
Baur, Samuel (Hg.)
Schütz, Christian Gottfried (Hg.)
Wagnitz, Heinrich Balthasar (Hg.)
Baur, Samuel (Hg.)
Schütz, Christian Gottfried (Hg.)
Wagnitz, Heinrich Balthasar (Hg.)
Baur, Samuel (Hg.)
Baur, Samuel (Hg.)
Schütz, Christian Gottfried (Hg.)
Wilde, Friedrich Wilhelm (Hg.)
Baur, Samuel (Hg.)
Baur, Samuel (Hg.)
Baur, Samuel (Hg.)
Baur, Samuel (Hg.)
Heyde, W. G. von der (Hg.)
